[
  {
    "name": "Beaker",
    "version": "1.9.0"
  },
  {
    "name": "FormEncode",
    "version": "1.3.1"
  },
  {
    "name": "Mako",
    "version": "1.0.7"
  },
  {
    "name": "MarkupSafe",
    "version": "1.0"
  },
  {
    "name": "Paste",
    "version": "2.0.3"
  },
  {
    "name": "PasteDeploy",
    "version": "1.5.2"
  },
  {
    "name": "PasteScript",
    "version": "2.0.2"
  },
  {
    "name": "Pygments",
    "version": "2.2.0"
  },
  {
    "name": "Pylons",
    "version": "1.0.2"
  },
  {
    "name": "Routes",
    "version": "2.4.1"
  },
  {
    "name": "Tempita",
    "version": "0.5.2"
  },
  {
    "name": "WebError",
    "version": "0.13.1"
  },
  {
    "name": "WebHelpers",
    "version": "1.3"
  },
  {
    "name": "WebOb",
    "version": "1.7.4"
  },
  {
    "name": "WebTest",
    "version": "2.0.29"
  },
  {
    "name": "beautifulsoup4",
    "version": "4.6.0"
  },
  {
    "name": "decorator",
    "version": "4.1.2"
  },
  {
    "name": "funcsigs",
    "version": "1.0.2"
  },
  {
    "name": "nose",
    "version": "1.3.7"
  },
  {
    "name": "pip",
    "version": "9.0.1"
  },
  {
    "name": "pipdeptree",
    "version": "0.10.1"
  },
  {
    "name": "repoze.lru",
    "version": "0.7"
  },
  {
    "name": "setuptools",
    "version": "38.2.4"
  },
  {
    "name": "simplejson",
    "version": "3.13.2"
  },
  {
    "name": "six",
    "version": "1.11.0"
  },
  {
    "name": "virtualenv",
    "version": "15.1.0"
  },
  {
    "name": "waitress",
    "version": "1.1.0"
  },
  {
    "name": "wheel",
    "version": "0.30.0"
  }
]