{
 "filepath": "pypi/pipdeptree.json",
 "package_manager": "pip",
 "package_type": "pypi",
 "packages": [
  {
   "name": "django",
   "version": "1.4.7"
  },
  {
   "name": "cryptography",
   "version": "2.2.2"
  },
  {
   "name": "cffi",
   "version": "1.13.1"
  },
  {
   "name": "elastic_apm",
   "version": "5.0.0"
  }
 ],
 "affections": [
  {
   "dependency": {
    "name": "django",
    "version": "1.4.7"
   },
   "advisory": {
    "identifier": "skcsirt-sa-20170909-pypi",
    "title": "Fake package, execution of benign malware",
    "description": "Copies of several well known Python packages were published under slightly\r\nmodified names in the official Python package repository PyPI (prominent\r\nexample includes urllib vs. urrlib3, bzip vs. bzip2, etc.). These packages\r\ncontain the exact same code as their upstream package thus their functionality\r\nis the same, but the installation script, setup.py, is modified to include a\r\nmalicious (but relatively benign) code.",
    "date": "2017-09-14",
    "affected_range": ">=0.0.0alpha",
    "fixed_versions": [],
    "affected_versions": "All versions",
    "solution": "Remove fake package.",
    "credit": "SK-CSIRT",
    "urls": [
     "http://www.nbu.gov.sk/skcsirt-sa-20170909-pypi/"
    ],
    "package_slug": {
     "type": "pypi",
     "name": "django-server"
    },
    "uuid": "24817e39-9afa-4f70-ab6f-af964c0c7899"
   }
  },
  {
   "dependency": {
    "name": "cryptography",
    "version": "2.2.2"
   },
   "advisory": {
    "identifier": "CVE-2018-10903",
    "title": "GCM tag forgery via truncated tag in finalize_with_tag API",
    "description": "The `finalize_with_tag` API did not enforce a minimum tag length. If a user did not validate the input length prior to passing it to `finalize_with_tag` an attacker could craft an invalid payload with a shortened tag (e.g. 1 byte) such that they would have a 1 in 256 chance of passing the MAC check. GCM tag forgeries can cause key leakage.",
    "date": "2018-07-30",
    "affected_range": ">=1.9.0,<2.3",
    "fixed_versions": [
     "2.3"
    ],
    "affected_versions": "From 1.9 to 2.2.2",
    "not_impacted": "1.8 and earlier",
    "solution": "Upgrade to latest version",
    "urls": [
     "http://cwe.mitre.org/data/definitions/20.html",
     "https://access.redhat.com/errata/RHSA-2018:3600",
     "https://bugzilla.redhat.com/show_bug.cgi?id=CVE-2018-10903",
     "https://github.com/pyca/cryptography/pull/4342/commits/688e0f673bfbf43fa898994326c6877f00ab19ef",
     "https://usn.ubuntu.com/3720-1/"
    ],
    "package_slug": {
     "type": "pypi",
     "name": "cryptography"
    },
    "uuid": "004b3de5-5aa8-4977-b6c5-3b9b31b28dcd"
   }
  },
  {
   "dependency": {
    "name": "elastic_apm",
    "version": "5.0.0"
   },
   "advisory": {
    "identifier": "skcsirt-sa-20170909-pypi",
    "title": "Fake package, execution of benign malware",
    "description": "Copies of several well known Python packages were published under slightly\r\nmodified names in the official Python package repository PyPI (prominent\r\nexample includes urllib vs. urrlib3, bzip vs. bzip2, etc.). These packages\r\ncontain the exact same code as their upstream package thus their functionality\r\nis the same, but the installation script, setup.py, is modified to include a\r\nmalicious (but relatively benign) code.",
    "date": "2017-09-14",
    "affected_range": ">=0.0.0alpha",
    "fixed_versions": [],
    "affected_versions": "All versions",
    "solution": "Remove fake package.",
    "credit": "SK-CSIRT",
    "urls": [
     "http://www.nbu.gov.sk/skcsirt-sa-20170909-pypi/"
    ],
    "package_slug": {
     "type": "pypi",
     "name": "django-server"
    },
    "uuid": "24817e39-9afa-4f70-ab6f-af964c0c7899"
   }
  }
 ]
}
